<?xml version="1.0" encoding="UTF-8" standalone="no"?>
<!-- Created with Inkscape (http://www.inkscape.org/) -->

<svg
   width="256"
   height="256"
   viewBox="0 0 67.733331 67.733335"
   version="1.1"
   id="svg5"
   inkscape:version="1.2 (dc2aedaf03, 2022-05-15)"
   sodipodi:docname="icons.svg"
   inkscape:export-filename="star_full.png"
   inkscape:export-xdpi="12"
   inkscape:export-ydpi="12"
   xmlns:inkscape="http://www.inkscape.org/namespaces/inkscape"
   xmlns:sodipodi="http://sodipodi.sourceforge.net/DTD/sodipodi-0.dtd"
   xmlns="http://www.w3.org/2000/svg"
   xmlns:svg="http://www.w3.org/2000/svg">
  <sodipodi:namedview
     id="namedview7"
     pagecolor="#505050"
     bordercolor="#ffffff"
     borderopacity="1"
     inkscape:pageshadow="0"
     inkscape:pageopacity="0"
     inkscape:pagecheckerboard="1"
     inkscape:document-units="mm"
     showgrid="false"
     units="px"
     width="256px"
     inkscape:zoom="2"
     inkscape:cx="63.000001"
     inkscape:cy="126"
     inkscape:window-width="1920"
     inkscape:window-height="1017"
     inkscape:window-x="-8"
     inkscape:window-y="87"
     inkscape:window-maximized="1"
     inkscape:current-layer="layer4"
     inkscape:showpageshadow="0"
     inkscape:deskcolor="#505050" />
  <defs
     id="defs2" />
  <g
     inkscape:label="Dir"
     inkscape:groupmode="layer"
     id="layer1"
     style="display:none">
    <path
       id="rect846"
       style="fill:#303756;fill-opacity:1;stroke:#b1b1b1;stroke-width:4;stroke-linecap:round;stroke-linejoin:round;stroke-opacity:1"
       d="M 6.0281772,8.3299398 H 21.703526 l 1.836048,9.3661762 h 40.49072 l -1.134429,41.40561 H 7.1626061 Z"
       sodipodi:nodetypes="ccccccc"
       inkscape:export-filename="/home/rodrigo/Workspace/Godot/GodotCenter/Icons/dir.png"
       inkscape:export-xdpi="9.274848"
       inkscape:export-ydpi="9.274848" />
  </g>
  <g
     inkscape:groupmode="layer"
     id="layer2"
     inkscape:label="Delete"
     style="display:none">
    <g
       id="g6857"
       transform="translate(-0.49779083,0.59542937)">
      <path
         id="rect4617"
         style="fill:#303756;stroke:#b1b1b1;stroke-width:4;stroke-linecap:round;stroke-linejoin:round"
         d="M 15.021948,21.014038 H 53.706967 L 47.736155,62.894894 H 20.992761 Z"
         sodipodi:nodetypes="ccccc" />
      <path
         style="fill:none;stroke:#b1b1b1;stroke-width:4;stroke-linecap:round;stroke-linejoin:miter;stroke-miterlimit:4;stroke-dasharray:none;stroke-opacity:1"
         d="M 33.968542,28.349713 V 56.344888"
         id="path4956"
         sodipodi:nodetypes="cc" />
      <path
         style="fill:none;stroke:#b1b1b1;stroke-width:4;stroke-linecap:round;stroke-linejoin:miter;stroke-miterlimit:4;stroke-dasharray:none;stroke-opacity:1"
         d="M 43.243889,28.493158 40.782853,56.347127"
         id="path5129"
         inkscape:transform-center-y="-20.16675"
         inkscape:transform-center-x="-1.715599"
         sodipodi:nodetypes="cc" />
      <path
         style="fill:none;stroke:#b1b1b1;stroke-width:4;stroke-linecap:round;stroke-linejoin:miter;stroke-miterlimit:4;stroke-dasharray:none;stroke-opacity:1"
         d="m 23.90429,28.493158 2.461036,27.853969"
         id="path5249"
         inkscape:transform-center-y="-20.16675"
         inkscape:transform-center-x="1.7155991"
         sodipodi:nodetypes="cc" />
      <path
         id="rect5667"
         style="fill:#303756;stroke:#b1b1b1;stroke-width:4;stroke-linecap:round;stroke-linejoin:round"
         d="m 14.200834,9.246722 h 15.524115 l 0.221433,-5.5991414 h 8.836151 l 0.221433,5.5991414 h 15.524115 v 6.761861 H 14.200834 Z"
         sodipodi:nodetypes="ccccccccc" />
    </g>
  </g>
  <g
     inkscape:groupmode="layer"
     id="layer3"
     inkscape:label="Close"
     style="display:none">
    <g
       id="g985"
       transform="matrix(1.2084353,0,0,1.2084353,-5.8701618,-7.3208204)">
      <path
         style="fill:none;stroke:#b1b1b1;stroke-width:4;stroke-linecap:round;stroke-linejoin:miter;stroke-miterlimit:4;stroke-dasharray:none;stroke-opacity:1"
         d="M 8.8914469,10.09189 56.874306,58.07475"
         id="path863" />
      <path
         style="fill:none;stroke:#b1b1b1;stroke-width:4;stroke-linecap:round;stroke-linejoin:miter;stroke-miterlimit:4;stroke-dasharray:none;stroke-opacity:1"
         d="M 56.874306,10.09189 8.8914465,58.07475"
         id="path981" />
    </g>
  </g>
  <g
     inkscape:groupmode="layer"
     id="layer4"
     inkscape:label="StarFull"
     style="display:inline">
    <path
       sodipodi:type="star"
       style="fill:#ffffff;fill-opacity:1;stroke:#ffffff;stroke-width:3.62763;stroke-linecap:round;stroke-linejoin:round;stroke-dasharray:none"
       id="path298"
       inkscape:flatsided="false"
       sodipodi:sides="5"
       sodipodi:cx="23.29254"
       sodipodi:cy="28.811655"
       sodipodi:r1="30.45583"
       sodipodi:r2="15.227914"
       sodipodi:arg1="-0.26179939"
       sodipodi:arg2="0.36651914"
       inkscape:rounded="0"
       inkscape:randomized="0"
       d="M 52.710612,20.929106 37.509022,34.268851 39.879973,54.354063 22.495572,44.0187 4.126065,52.48028 8.5835043,32.752929 -5.1404268,17.897262 14.998823,16.040452 24.886474,-1.6024359 32.875776,16.977343 Z"
       inkscape:transform-center-x="-0.024758257"
       inkscape:transform-center-y="-3.0963701"
       transform="matrix(1.0714406,-0.05351749,0.05351749,1.0714406,7.3429162,7.4009677)" />
  </g>
  <g
     inkscape:groupmode="layer"
     id="g976"
     inkscape:label="StarEmpty"
     style="display:none">
    <path
       sodipodi:type="star"
       style="fill:none;fill-opacity:1;stroke:#9f9f9f;stroke-width:3.62763;stroke-linecap:round;stroke-linejoin:round;stroke-dasharray:none;stroke-opacity:1"
       id="path974"
       inkscape:flatsided="false"
       sodipodi:sides="5"
       sodipodi:cx="23.29254"
       sodipodi:cy="28.811655"
       sodipodi:r1="30.45583"
       sodipodi:r2="15.227914"
       sodipodi:arg1="-0.26179939"
       sodipodi:arg2="0.36651914"
       inkscape:rounded="0"
       inkscape:randomized="0"
       d="M 52.710612,20.929106 37.509022,34.268851 39.879973,54.354063 22.495572,44.0187 4.126065,52.48028 8.5835043,32.752929 -5.1404268,17.897262 14.998823,16.040452 24.886474,-1.6024359 32.875776,16.977343 Z"
       inkscape:transform-center-x="-0.024758257"
       inkscape:transform-center-y="-3.0963701"
       transform="matrix(1.0714406,-0.05351749,0.05351749,1.0714406,7.3429162,7.4009677)" />
  </g>
</svg>
